…
# Table

Producing a table showing the most popular name among male children over
time.

``` r
baby_names %>%
  filter(gender == "MALE", rank == "1") %>%
  group_by(rank, birth_year)
```

    ## # A tibble: 24 x 6
    ## # Groups:   rank, birth_year [6]
    ##    birth_year gender ethnicity                  name   count  rank
    ##         <int> <fct>  <fct>                      <fct>  <int> <int>
    ##  1       2016 MALE   ASIAN AND PACIFIC ISLANDER Ethan    193     1
    ##  2       2016 MALE   BLACK NON HISPANIC         Noah     148     1
    ##  3       2016 MALE   HISPANIC                   Liam     387     1
    ##  4       2016 MALE   WHITE NON HISPANIC         Joseph   261     1
    ##  5       2015 MALE   ASIAN AND PACIFIC ISLANDER Jayden   190     1
    ##  6       2015 MALE   BLACK NON HISPANIC         Noah     163     1
    ##  7       2015 MALE   HISPANIC                   Liam     356     1
    ##  8       2015 MALE   WHITE NON HISPANIC         David    299     1
    ##  9       2014 MALE   ASIAN AND PACIFIC ISLANDER Jayden   187     1
    ## 10       2014 MALE   BLACK NON HISPANIC         Ethan    138     1
    ## # … with 14 more rows
…
